Step	d0	d1	w0	w1	Pir0	Pir1	Central	Siren
0	1	1	1	1	1	1	0	0
1	1	1	1	1	1	1	1	0
2	1	1	1	1	1	1	1	0
3	1	1	0	1	1	1	1	1
4	1	1	1	1	1	1	1	1
5	1	1	1	1	1	1	0	0
6	1	1	1	1	1	1	1	0
7	1	1	1	1	1	1	1	0
8	1	1	1	1	0	1	1	1
9	1	1	1	1	1	1	1	1
10	1	1	1	1	1	1	0	0
11	1	1	1	1	1	1	0	0
12	1	1	1	1	1	1	0	0
13	1	1	1	1	1	1	1	0
14	1	1	1	1	0	1	1	0
15	1	1	1	1	0	1	1	1
16	1	1	1	1	0	1	0	0
17	1	1	1	1	1	1	0	0
18	1	1	1	1	1	1	0	0
19	1	1	1	1	1	1	0	0
20	1	1	1	1	1	1	1	0
21	1	1	1	1	1	1	1	0
22	1	1	1	1	1	1	1	0
23	1	1	1	1	1	1	1	0
24	1	1	1	1	1	1	1	0
25	1	1	1	1	1	1	1	0
26	1	1	1	1	1	1	1	0
27	1	1	1	1	1	1	1	0
28	1	1	1	1	1	1	1	0
